Data Cleaning + Initial EDA
…
Seems like age is a strong predictor of giving.

contacts %>% 
  filter(total_number_of_gifts > 20)

## # A tibble: 4,793 x 24
##    supporter_id   age gender religion  state postcode country   comms_preference
##    <chr>        <dbl> <chr>  <chr>     <chr> <chr>    <chr>     <chr>           
##  1 678393          NA Male   Christian SA    5118     Australia <NA>            
##  2 678414          NA Male   Christian VIC   3095     Australia {AFP-DNEmail}{A~
##  3 678482          NA Male   Christian QLD   4069     Australia <NA>            
##  4 678499          88 Male   Christian NSW   2118     Australia {AFP-DNCall}    
##  5 678503          NA Male   Christian VIC   3149     Australia {AFP-DNMail}    
##  6 678521          67 Female Christian VIC   3104     Australia {AFP-DNCall}{AF~
##  7 678567          88 Female Christian VIC   3677     Australia <NA>            
##  8 678591          NA Female Christian QLD   4700     Australia <NA>            
##  9 678614          NA Male   Christian ACT   2615     Australia <NA>            
## 10 678615          68 Female Christian NSW   2680     Australia {AFP-DNEmail}   
## # ... with 4,783 more rows, and 16 more variables: bequest_status <chr>,
## #   total_number_of_gifts <dbl>, num_gifts_last_365_days <dbl>,
## #   num_gifts_this_year <dbl>, num_gifts_last_year <dbl>,
## #   num_gifts_two_years_ago <dbl>, total_gifts <dbl>,
## #   total_gifts_last_365_days <dbl>, total_gifts_last_year <dbl>,
## #   total_gifts_this_year <dbl>, total_gifts_two_years_ago <dbl>,
## #   avg_gift_amount <dbl>, avg_gift_amount_last_365_days <dbl>, ...
…
# Clean state and postcode data.
contacts

## # A tibble: 66,654 x 24
##    supporter_id   age gender religion state postcode country   comms_preference
##    <chr>        <dbl> <chr>  <chr>    <chr> <chr>    <chr>     <chr>           
##  1 678350          NA Female <NA>     NSW   2077     Australia <NA>            
##  2 678352          NA Male   <NA>     QLD   4075     Australia <NA>            
##  3 678354          NA Male   <NA>     VIC   3915     Australia <NA>            
##  4 678355          NA <NA>   <NA>     QLD   4075     Australia {AFP-DNMail}    
##  5 678364          NA Male   <NA>     NSW   2594     Australia <NA>            
##  6 678368          NA Female <NA>     NSW   2153     Australia <NA>            
##  7 678374          NA <NA>   <NA>     TAS   7000     Australia <NA>            
##  8 678376          NA Female <NA>     QLD   4650     Australia <NA>            
##  9 678381          NA Male   <NA>     QLD   4055     Australia {AFP-DNMail}    
## 10 678383          NA Male   <NA>     QLD   4070     Australia <NA>            
## # ... with 66,644 more rows, and 16 more variables: bequest_status <chr>,
## #   total_number_of_gifts <dbl>, num_gifts_last_365_days <dbl>,
## #   num_gifts_this_year <dbl>, num_gifts_last_year <dbl>,
## #   num_gifts_two_years_ago <dbl>, total_gifts <dbl>,
## #   total_gifts_last_365_days <dbl>, total_gifts_last_year <dbl>,
## #   total_gifts_this_year <dbl>, total_gifts_two_years_ago <dbl>,
## #   avg_gift_amount <dbl>, avg_gift_amount_last_365_days <dbl>, ...
…
## # A tibble: 6 x 1
##   country       
##   <chr>         
## 1 New Zealand   
## 2 United Kingdom
## 3 Slovenia      
## 4 Mexico        
## 5 Switzerland   
## 6 Norway

contacts %>% distinct(postcode)

## # A tibble: 2,492 x 1
##    postcode
##    <chr>   
##  1 2077    
##  2 4075    
##  3 3915    
##  4 2594    
##  5 2153    
##  6 7000    
##  7 4650    
##  8 4055    
##  9 4070    
## 10 2256    
## # ... with 2,482 more rows
…
transactions %>% 
  count(source, sort = TRUE)

## # A tibble: 2,397 x 2
##    source                   n
##    <chr>                <int>
##  1 RG-AFP-EOFY15        18772
##  2 CB13-NEWS-IND         2295
##  3 RG-RC16-TF-1607       1842
##  4 AFP-NEWS-ACQ-1405-IN  1829
##  5 CB12-CH-ACV-200       1776
##  6 RG-AFP-OUTB-1507      1264
##  7 EM-CON-SYR-0912-IND   1206
##  8 CB12-NEWS-IND-C       1195
##  9 CB13-FP-CH-ACV-200    1097
## 10 CB12-NEWS-IND-P       1073
## # ... with 2,387 more rows

contacts %>% 
  filter(total_number_of_gifts > 0)

## # A tibble: 57,000 x 24
##    supporter_id   age gender religion state postcode country   comms_preference
##    <chr>        <dbl> <chr>  <chr>    <chr> <chr>    <chr>     <chr>           
##  1 678350          NA Female <NA>     NSW   2077     Australia <NA>            
##  2 678352          NA Male   <NA>     QLD   4075     Australia <NA>            
##  3 678354          NA Male   <NA>     VIC   3915     Australia <NA>            
##  4 678355          NA <NA>   <NA>     QLD   4075     Australia {AFP-DNMail}    
##  5 678364          NA Male   <NA>     NSW   2594     Australia <NA>            
##  6 678368          NA Female <NA>     NSW   2153     Australia <NA>            
##  7 678374          NA <NA>   <NA>     TAS   7000     Australia <NA>            
##  8 678376          NA Female <NA>     QLD   4650     Australia <NA>            
##  9 678381          NA Male   <NA>     QLD   4055     Australia {AFP-DNMail}    
## 10 678383          NA Male   <NA>     QLD   4070     Australia <NA>            
## # ... with 56,990 more rows, and 16 more variables: bequest_status <chr>,
## #   total_number_of_gifts <dbl>, num_gifts_last_365_days <dbl>,
## #   num_gifts_this_year <dbl>, num_gifts_last_year <dbl>,
## #   num_gifts_two_years_ago <dbl>, total_gifts <dbl>,
## #   total_gifts_last_365_days <dbl>, total_gifts_last_year <dbl>,
## #   total_gifts_this_year <dbl>, total_gifts_two_years_ago <dbl>,
## #   avg_gift_amount <dbl>, avg_gift_amount_last_365_days <dbl>, ...

contacts %>% 
  filter(total_number_of_gifts == 0) %>% 
  inner_join(transactions, by = "supporter_id") %>% 
  group_by(supporter_id) %>% 
  slice_max(date) %>% 
  arrange(desc(date))

## # A tibble: 1,951 x 31
## # Groups:   supporter_id [1,949]
##    supporter_id   age gender religion  state postcode country   comms_preference
##    <chr>        <dbl> <chr>  <chr>     <chr> <chr>    <chr>     <chr>           
##  1 777501          NA Male   Christian VIC   3188     Australia <NA>            
##  2 778159          NA Female Christian VIC   3065     Australia {AFP-DNMail}    
##  3 741224          NA Female Christian QLD   4380     Australia <NA>            
##  4 777538          NA Male   Christian VIC   3124     Australia <NA>            
##  5 777591          NA Male   Christian VIC   3216     <NA>      <NA>            
##  6 741713          NA Male   <NA>      SA    5166     Australia <NA>            
##  7 777432          NA Male   Christian VIC   3563     Australia <NA>            
##  8 777769          NA Female Christian VIC   3300     Australia <NA>            
##  9 733475          NA <NA>   <NA>      SA    5023     Australia <NA>            
## 10 776508          NA Female Christian QLD   4051     Australia <NA>            
## # ... with 1,941 more rows, and 23 more variables: bequest_status <chr>,
## #   total_number_of_gifts <dbl>, num_gifts_last_365_days <dbl>,
## #   num_gifts_this_year <dbl>, num_gifts_last_year <dbl>,
## #   num_gifts_two_years_ago <dbl>, total_gifts <dbl>,
## #   total_gifts_last_365_days <dbl>, total_gifts_last_year <dbl>,
## #   total_gifts_this_year <dbl>, total_gifts_two_years_ago <dbl>,
## #   avg_gift_amount <dbl>, avg_gift_amount_last_365_days <dbl>, ...
…
