Act for Peace Interview: Data Analysis and Write-up
…
It appears that the sum of transactions for 7,592 out of
32,188 supporters in the Transactions table (sum of the
Amount column) was different to the value of
Total Gifts for those same supporters in the Contacts
table.

## # A tibble: 4,364 x 4
##    supporter_id total_gifts_from_contacts total_amount_from_transactions  diff
##    <chr>                            <dbl>                          <dbl> <dbl>
##  1 681852                             470                            472     2
##  2 688598                             100                            105     5
##  3 692276                              50                             52     2
##  4 692294                              20                             21     1
##  5 692298                              50                             52     2
##  6 692300                             105                            111     6
##  7 692304                              40                             42     2
##  8 692309                             105                            110     5
##  9 692316                              50                             52     2
## 10 692323                              20                             21     1
## # ... with 4,354 more rows
…
Joined the Contacts and Transactions tables together to indicate
what campaigns and source channels a supporter had participated in
before. Having the campaigns and channels in this format means that I
can possibly tokenize this data later if I want to feed it to a machine
learning model. I removed information related to 2017 to avoid
data leakage.

 Data leakage is when information from outside the training
dataset is used to build a model. As youll see later, I try to predict
total donations in 2017 while pretending that I live in the year 2016 -
if I used information from 2017, that would be an unfair and misleading
advantage for my model.

## # A tibble: 30,680 x 2
##    supporter_id previous_campaigns               
##    <chr>        <chr>                            
##  1 678352       CB|FP|CH|ACV|B                   
##  2 678355       CB|KIT|CH|ACV                    
##  3 678368       CB|FP|C|CH|ACV|B|HP              
##  4 678393       AFP|NEWS|IND|CB|REM|FP|C|INDB|MVA
##  5 678408       EM|DIS|WEB|PHL|VUT               
##  6 678409       CB|CH|ACV                        
##  7 678414       CB|FP                            
##  8 678418       NEWS|IND|CB|C|INDB               
##  9 678422       NEWS|IND|CB|C                    
## 10 678439       CB|WEB                           
## # ... with 30,670 more rows
…
